[
  {
    "Id": 1,
    "FirstName": "Ardian",
    "LastName": "Derstila",
    "Deleted": false,
    "UserTypes": []
  },
  {
    "Id": 2,
    "FirstName": "Test1",
    "LastName": "Test",
    "Deleted": false,
    "UserTypes": []
  },
  {
    "Id": 3,
    "FirstName": "First",
    "LastName": "Last",
    "Deleted": false,
    "UserTypes": []
  },
  {
    "Id": 4,
    "FirstName": "string",
    "LastName": "string",
    "Deleted": true,
    "UserTypes": []
  },
  {
    "Id": 5,
    "FirstName": "Test5",
    "LastName": "Test5",
    "Deleted": false,
    "UserTypes": []
  }
]